{
  "entrypoint": "index.html",
  "shell": "src/my-app.html",
  "fragments": [
    "src/app-inicio.html",
    "src/aviso-legal.html",
    "src/app-acceso.html",
    "src/app-registro.html",
    "src/usuario-portafolio.html",
    "src/app-salida.html",
    "src/no-encontrado-404.html"
  ],
  "sources": [
    "images/**/*",
    "src/**/*"
  ],
  "extraDependencies": [
    "bower_components/webcomponentsjs/*.js",
    "!bower_components/webcomponentsjs/gulpfile.js",
    "manifest.json"
  ],
  "lint": {
    "rules": ["polymer-2"]
  },
  "builds": [
    {
      "preset": "es5-bundled"
    },
    {
      "preset": "es6-bundled"
    },
    {
      "preset": "es6-unbundled"
    }
  ]
}
